{
  "AccessoryFactory" : {
    "TimeToProduceItem" : 2000
  },
  "AccessoryStorage" : {
    "Capacity" : 10,
    "CountOfFactories" : 3
  },


  "AssemblyUnit" : {
    "DillerCount" : 3,
    "TimeToAssembly" : 8000
  }
}